<?xml version="1.0" encoding="utf-8"?>
<!-- Generator: Adobe Illustrator 23.0.3, SVG Export Plug-In . SVG Version: 6.00 Build 0)  -->
<svg version="1.1" id="Capa_1" xmlns="http://www.w3.org/2000/svg" xmlns:xlink="http://www.w3.org/1999/xlink" x="0px" y="0px"
	 viewBox="0 0 33 33" style="enable-background:new 0 0 33 33;" xml:space="preserve">
<style type="text/css">
	.st0{fill:#C9D6FF;}
</style>
<path class="st0" d="M32,11c-0.8-1.3-1.6-2.6-2.4-3.9c-0.2-0.4-0.7-0.6-0.8-0.6c-2.7-1.1-5.4-2-8.1-3l-2.5-1c-0.3-0.1-0.6-0.2-1-0.3
	c-0.4-0.2-0.8-0.2-1.3,0C12.1,3.7,8.2,5.1,4.2,6.5c-0.3,0.1-0.6,0.4-1,0.8c-0.7,1.2-1.4,2.2-2.1,3.4l-1.1,1.7v0.8l0.2,0.2
	c0.1,0,0.1,0.1,0.2,0.1c0.2,0.1,0.3,0.3,0.6,0.4c0.6,0.3,1.4,0.6,2.1,1c0,2.9,0,5.8,0,8.7v1.6c0,0.7,0.3,1.2,1,1.4l1.7,0.6
	c3.3,1.3,6.7,2.4,9.9,3.7c0.2,0.1,0.4,0.1,0.6,0.1s0.4,0,0.6-0.1l11.6-4.2c0.7-0.3,1.1-0.6,1.1-1.5v-1.9c0-2.7,0-5.5,0-8.3
	c0.7-0.3,1.5-0.6,2.1-1c0.2-0.1,0.4-0.3,0.6-0.4c0,0,0.1-0.1,0.2-0.1l0.2-0.2v-0.8L32,11z M15.2,17v10.9l-2-0.7
	c-2.4-1-4.9-1.8-7.4-2.7c0-2.4,0-4.9,0-7.2V16l6.9,2.9c0.8,0.3,1.5,0.2,1.9-0.6L15.2,17z M16.5,10.8c-2.7-1.1-5.5-2-8.3-3.1l3.9-1.5
	c1.5-0.5,2.9-1.1,4.3-1.6c2.7,1.1,5.5,2,8.2,3.1h0.1C22.1,8.7,19.3,9.7,16.5,10.8z M14.7,12.8l-1.9,3.4l-9.5-4l1.8-2.9L14.7,12.8z
	 M27.2,24.4c-2.5,1-5,1.8-7.5,2.7l-1.9,0.7V17l0.6,1.2c0.4,0.7,1.1,1,1.9,0.6l6.9-2.9v1.2C27.2,19.6,27.2,22,27.2,24.4z M27.9,9.2
	l1.8,3l-9.5,4l-1.9-3.4L27.9,9.2z"/>
</svg>
